[
  {
    "type": "tab",
    "id": "ac7341a9.9ce99",
    "label": "Flow 1"
  },
  {
    "id": "595a560a.0d7738",
    "type": "ui_tab",
    "z": "ac7341a9.9ce99",
    "name": "Home",
    "icon": "dashboard",
    "order": "1"
  },
  {
    "id": "4bb3c14f.b5df8",
    "type": "inject",
    "z": "ac7341a9.9ce99",
    "name": "",
    "topic": "",
    "payload": "",
    "payloadType": "date",
    "repeat": "10",
    "crontab": "",
    "once": false,
    "x": 89.5,
    "y": 121,
    "wires": [
      [
        "8070cb32.725048",
        "dbaec368.0c64b"
      ]
    ]
  },
  {
    "id": "85ff9e27.2da0b",
    "type": "debug",
    "z": "ac7341a9.9ce99",
    "name": "",
    "active": true,
    "console": "true",
    "complete": "payload",
    "x": 505.5,
    "y": 120,
    "wires": []
  },
  {
    "id": "8070cb32.725048",
    "type": "function",
    "z": "ac7341a9.9ce99",
    "name": "toDate",
    "func": "// Create a Date object from the payload\nvar date = new Date(msg.payload);\n// Change the payload to be a formatted Date string\nmsg.payload = date.toString();\n// Return the message so it can be sent on\nreturn msg;",
    "outputs": 1,
    "noerr": 0,
    "x": 260.5,
    "y": 121,
    "wires": [
      [
        "85ff9e27.2da0b"
      ]
    ]
  },
  {
    "id": "dbaec368.0c64b",
    "type": "function",
    "z": "ac7341a9.9ce99",
    "name": "Generate random number",
    "func": "msg.payload = Math.round(Math.random()*100);\nreturn msg;",
    "outputs": 1,
    "noerr": 0,
    "x": 309,
    "y": 201,
    "wires": [
      []
    ]
  }
]